…
```r
food_supply_clean <- janitor::clean_names(food_supply)
food_supply_clean
```

```
## # A tibble: 170 x 32
##    country      alcoholic_bevera… animal_fats animal_products aquatic_products_…
##    <chr>                    <dbl>       <dbl>           <dbl>              <dbl>
##  1 Afghanistan             0.0014      0.197             9.43             0     
##  2 Albania                 1.67        0.136            18.8              0     
##  3 Algeria                 0.271       0.0282            9.63             0     
##  4 Angola                  5.81        0.056             4.93             0     
##  5 Antigua and…            3.58        0.0087           16.7              0     
##  6 Argentina               4.27        0.223            19.3              0     
##  7 Armenia                 0.401       0.183            13.6              0     
##  8 Australia               5.54        0.314            21.4              0.0033
##  9 Austria                 7.02        0.856            19.6              0.0011
## 10 Azerbaijan              3.60        0.254            11.6              0     
## # … with 160 more rows, and 27 more variables: cereals_excluding_beer <dbl>,
## #   eggs <dbl>, fish_seafood <dbl>, fruits_excluding_wine <dbl>, meat <dbl>,
## #   milk_excluding_butter <dbl>, miscellaneous <dbl>, offals <dbl>,
## #   oilcrops <dbl>, pulses <dbl>, spices <dbl>, starchy_roots <dbl>,
## #   stimulants <dbl>, sugar_sweeteners <dbl>, sugar_crops <dbl>,
## #   treenuts <dbl>, vegetable_oils <dbl>, vegetables <dbl>,
## #   vegetal_products <dbl>, obesity <dbl>, undernourished <chr>,
## #   confirmed <dbl>, deaths <dbl>, recovered <dbl>, active <dbl>,
## #   population <dbl>, unit_all_except_population <chr>
```
…
```r
food_supply_clean %>%
  naniar::miss_var_summary()
```

```
## # A tibble: 32 x 3
##    variable            n_miss pct_miss
##    <chr>                <int>    <dbl>
##  1 active                   8     4.71
##  2 undernourished           7     4.12
##  3 confirmed                6     3.53
##  4 deaths                   6     3.53
##  5 recovered                6     3.53
##  6 obesity                  3     1.76
##  7 country                  0     0   
##  8 alcoholic_beverages      0     0   
##  9 animal_fats              0     0   
## 10 animal_products          0     0   
## # … with 22 more rows
```
…
```r
TFC_long <- total_food_consumption %>%
  pivot_longer(-country,
               names_to = "category",
               values_to = "values")
TFC_long <- TFC_long %>% 
  filter(category != "deaths")
TFC_long
```

```
## # A tibble: 28 x 3
## # Groups:   country [7]
##    country        category                  values
##    <chr>          <chr>                      <dbl>
##  1 Belgium        total_protein_consumption  35.5 
##  2 Belgium        total_veggie_consumption   47.8 
##  3 Belgium        total_fruit_consumption     4.41
##  4 Belgium        total_grain_consumption    12.3 
##  5 Slovenia       total_protein_consumption  37.8 
##  6 Slovenia       total_veggie_consumption   41.9 
##  7 Slovenia       total_fruit_consumption     6.70
##  8 Slovenia       total_grain_consumption    12.9 
##  9 United Kingdom total_protein_consumption  37.8 
## 10 United Kingdom total_veggie_consumption   44.1 
## # … with 18 more rows
```
…
```r
country_tfc<-food_supply_clean %>%
  group_by(country, deaths, population) %>%
  summarize(total_protein_consumption = sum(animal_fats, animal_products, aquatic_products_other, eggs, fish_seafood, meat, milk_excluding_butter, offals),
            total_veggie_consumption = sum(starchy_roots, sugar_crops, sugar_sweeteners, treenuts, vegetable_oils, vegetables, vegetal_products),
            total_fruit_consumption = sum(fruits_excluding_wine, stimulants),
            total_grain_consumption = sum(alcoholic_beverages, cereals_excluding_beer, oilcrops, pulses, spices), .groups = 'keep') %>% 
  arrange(desc(deaths))
country_tfc
```

```
## # A tibble: 170 x 7
## # Groups:   country, deaths, population [170]
##    country  deaths population total_protein_c… total_veggie_co… total_fruit_con…
##    <chr>     <dbl>      <dbl>            <dbl>            <dbl>            <dbl>
##  1 Belgium   0.185   11515000             35.5             47.8             4.41
##  2 Slovenia  0.172    2103000             37.8             41.9             6.70
##  3 United …  0.167   67160000             37.8             44.1             5.20
##  4 Czechia   0.160   10716000             35.6             45.0             3.53
##  5 Italy     0.151   60296000             38.1             43.4             6.32
##  6 Bosnia …  0.146    3281000             24.9             55.4             4.99
##  7 North M…  0.140    2080000             24.1             60.2             5.34
##  8 United …  0.140  329878000             42.5             41.8             4.79
##  9 Portugal  0.136   10255000             37.3             44.5             6.78
## 10 Bulgaria  0.134    6927000             34.5             44.0             4.26
## # … with 160 more rows, and 1 more variable: total_grain_consumption <dbl>
```

```r
country_tfc_long <- country_tfc %>%
  pivot_longer(-country,
               names_to = "category",
               values_to = "values")
country_tfc_long <- country_tfc_long %>% 
  filter(category != "deaths", category != "population")
country_tfc_long
```

```
## # A tibble: 680 x 3
## # Groups:   country [170]
##    country        category                  values
##    <chr>          <chr>                      <dbl>
##  1 Belgium        total_protein_consumption  35.5 
##  2 Belgium        total_veggie_consumption   47.8 
##  3 Belgium        total_fruit_consumption     4.41
##  4 Belgium        total_grain_consumption    12.3 
##  5 Slovenia       total_protein_consumption  37.8 
##  6 Slovenia       total_veggie_consumption   41.9 
##  7 Slovenia       total_fruit_consumption     6.70
##  8 Slovenia       total_grain_consumption    12.9 
##  9 United Kingdom total_protein_consumption  37.8 
## 10 United Kingdom total_veggie_consumption   44.1 
## # … with 670 more rows
```

***Margarita's Stuff***

```r
TFC_long %>% 
  mutate(pct = round(values, digits = 2))
```

```
## # A tibble: 28 x 4
## # Groups:   country [7]
##    country        category                  values   pct
##    <chr>          <chr>                      <dbl> <dbl>
##  1 Belgium        total_protein_consumption  35.5  35.5 
##  2 Belgium        total_veggie_consumption   47.8  47.8 
##  3 Belgium        total_fruit_consumption     4.41  4.41
##  4 Belgium        total_grain_consumption    12.3  12.3 
##  5 Slovenia       total_protein_consumption  37.8  37.8 
##  6 Slovenia       total_veggie_consumption   41.9  41.9 
##  7 Slovenia       total_fruit_consumption     6.70  6.7 
##  8 Slovenia       total_grain_consumption    12.9  12.9 
##  9 United Kingdom total_protein_consumption  37.8  37.8 
## 10 United Kingdom total_veggie_consumption   44.1  44.1 
## # … with 18 more rows
```
…
```r
TFC_long2 <-TFC_long %>% 
  mutate(cat2 = category) %>% 
  mutate(pct = round(values, digits = 2))

TFC_long2$cat2 <- cats
TFC_long2
```

```
## # A tibble: 28 x 5
## # Groups:   country [7]
##    country        category                  values cat2         pct
##    <chr>          <chr>                      <dbl> <chr>      <dbl>
##  1 Belgium        total_protein_consumption  35.5  Protein    35.5 
##  2 Belgium        total_veggie_consumption   47.8  Vegetables 47.8 
##  3 Belgium        total_fruit_consumption     4.41 Fruits      4.41
##  4 Belgium        total_grain_consumption    12.3  Grains     12.3 
##  5 Slovenia       total_protein_consumption  37.8  Protein    37.8 
##  6 Slovenia       total_veggie_consumption   41.9  Vegetables 41.9 
##  7 Slovenia       total_fruit_consumption     6.70 Fruits      6.7 
##  8 Slovenia       total_grain_consumption    12.9  Grains     12.9 
##  9 United Kingdom total_protein_consumption  37.8  Protein    37.8 
## 10 United Kingdom total_veggie_consumption   44.1  Vegetables 44.1 
## # … with 18 more rows
```
…
